{
    "page": 1,
    "per_page": 6,
    "photos": [
        {
            "id": 1649771,
            "width": 7728,
            "height": 5152,
            "url": "https://www.pexels.com/photo/top-view-photo-of-black-wireless-headphones-1649771/",
            "photographer": "Garrett Morrow",
            "photographer_url": "https://www.pexels.com/@garrettmorrow",
            "photographer_id": 176134,
            "avg_color": "#151515",
            "src": {
                "original": "https://images.pexels.com/photos/1649771/pexels-photo-1649771.jpeg",
                "large2x": "https://images.pexels.com/photos/1649771/pexels-photo-1649771.jpeg?auto=compress&cs=tinysrgb&dpr=2&h=650&w=940",
                "large": "https://images.pexels.com/photos/1649771/pexels-photo-1649771.jpeg?auto=compress&cs=tinysrgb&h=650&w=940",
                "medium": "https://images.pexels.com/photos/1649771/pexels-photo-1649771.jpeg?auto=compress&cs=tinysrgb&h=350",
                "small": "https://images.pexels.com/photos/1649771/pexels-photo-1649771.jpeg?auto=compress&cs=tinysrgb&h=130",
                "portrait": "https://images.pexels.com/photos/1649771/pexels-photo-1649771.jpeg?auto=compress&cs=tinysrgb&fit=crop&h=1200&w=800",
                "landscape": "https://images.pexels.com/photos/1649771/pexels-photo-1649771.jpeg?auto=compress&cs=tinysrgb&fit=crop&h=627&w=1200",
                "tiny": "https://images.pexels.com/photos/1649771/pexels-photo-1649771.jpeg?auto=compress&cs=tinysrgb&dpr=1&fit=crop&h=200&w=280"
            },
            "liked": false
        },
        {
            "id": 3945667,
            "width": 6000,
            "height": 4000,
            "url": "https://www.pexels.com/photo/black-wireless-headphones-on-white-surface-3945667/",
            "photographer": "cottonbro",
            "photographer_url": "https://www.pexels.com/@cottonbro",
            "photographer_id": 1437723,
            "avg_color": "#DBDBDB",
            "src": {
                "original": "https://images.pexels.com/photos/3945667/pexels-photo-3945667.jpeg",
                "large2x": "https://images.pexels.com/photos/3945667/pexels-photo-3945667.jpeg?auto=compress&cs=tinysrgb&dpr=2&h=650&w=940",
                "large": "https://images.pexels.com/photos/3945667/pexels-photo-3945667.jpeg?auto=compress&cs=tinysrgb&h=650&w=940",
                "medium": "https://images.pexels.com/photos/3945667/pexels-photo-3945667.jpeg?auto=compress&cs=tinysrgb&h=350",
                "small": "https://images.pexels.com/photos/3945667/pexels-photo-3945667.jpeg?auto=compress&cs=tinysrgb&h=130",
                "portrait": "https://images.pexels.com/photos/3945667/pexels-photo-3945667.jpeg?auto=compress&cs=tinysrgb&fit=crop&h=1200&w=800",
                "landscape": "https://images.pexels.com/photos/3945667/pexels-photo-3945667.jpeg?auto=compress&cs=tinysrgb&fit=crop&h=627&w=1200",
                "tiny": "https://images.pexels.com/photos/3945667/pexels-photo-3945667.jpeg?auto=compress&cs=tinysrgb&dpr=1&fit=crop&h=200&w=280"
            },
            "liked": false
        },
        {
            "id": 377711,
            "width": 6000,
            "height": 4000,
            "url": "https://www.pexels.com/photo/black-marshall-headphones-377711/",
            "photographer": "Karol D",
            "photographer_url": "https://www.pexels.com/@karoldach",
            "photographer_id": 97159,
            "avg_color": "#747076",
            "src": {
                "original": "https://images.pexels.com/photos/377711/pexels-photo-377711.jpeg",
                "large2x": "https://images.pexels.com/photos/377711/pexels-photo-377711.jpeg?auto=compress&cs=tinysrgb&dpr=2&h=650&w=940",
                "large": "https://images.pexels.com/photos/377711/pexels-photo-377711.jpeg?auto=compress&cs=tinysrgb&h=650&w=940",
                "medium": "https://images.pexels.com/photos/377711/pexels-photo-377711.jpeg?auto=compress&cs=tinysrgb&h=350",
                "small": "https://images.pexels.com/photos/377711/pexels-photo-377711.jpeg?auto=compress&cs=tinysrgb&h=130",
                "portrait": "https://images.pexels.com/photos/377711/pexels-photo-377711.jpeg?auto=compress&cs=tinysrgb&fit=crop&h=1200&w=800",
                "landscape": "https://images.pexels.com/photos/377711/pexels-photo-377711.jpeg?auto=compress&cs=tinysrgb&fit=crop&h=627&w=1200",
                "tiny": "https://images.pexels.com/photos/377711/pexels-photo-377711.jpeg?auto=compress&cs=tinysrgb&dpr=1&fit=crop&h=200&w=280"
            },
            "liked": false
        },
        {
            "id": 3587477,
            "width": 4000,
            "height": 6000,
            "url": "https://www.pexels.com/photo/close-up-photo-of-headset-on-mic-3587477/",
            "photographer": "Wallace Chuck",
            "photographer_url": "https://www.pexels.com/@chuck",
            "photographer_id": 892860,
            "avg_color": "#3D535F",
            "src": {
                "original": "https://images.pexels.com/photos/3587477/pexels-photo-3587477.jpeg",
                "large2x": "https://images.pexels.com/photos/3587477/pexels-photo-3587477.jpeg?auto=compress&cs=tinysrgb&dpr=2&h=650&w=940",
                "large": "https://images.pexels.com/photos/3587477/pexels-photo-3587477.jpeg?auto=compress&cs=tinysrgb&h=650&w=940",
                "medium": "https://images.pexels.com/photos/3587477/pexels-photo-3587477.jpeg?auto=compress&cs=tinysrgb&h=350",
                "small": "https://images.pexels.com/photos/3587477/pexels-photo-3587477.jpeg?auto=compress&cs=tinysrgb&h=130",
                "portrait": "https://images.pexels.com/photos/3587477/pexels-photo-3587477.jpeg?auto=compress&cs=tinysrgb&fit=crop&h=1200&w=800",
                "landscape": "https://images.pexels.com/photos/3587477/pexels-photo-3587477.jpeg?auto=compress&cs=tinysrgb&fit=crop&h=627&w=1200",
                "tiny": "https://images.pexels.com/photos/3587477/pexels-photo-3587477.jpeg?auto=compress&cs=tinysrgb&dpr=1&fit=crop&h=200&w=280"
            },
            "liked": false
        },
        {
            "id": 5081386,
            "width": 4160,
            "height": 6240,
            "url": "https://www.pexels.com/photo/black-and-silver-headphones-beside-macbook-pro-5081386/",
            "photographer": "cottonbro",
            "photographer_url": "https://www.pexels.com/@cottonbro",
            "photographer_id": 1437723,
            "avg_color": "#A8ACB5",
            "src": {
                "original": "https://images.pexels.com/photos/5081386/pexels-photo-5081386.jpeg",
                "large2x": "https://images.pexels.com/photos/5081386/pexels-photo-5081386.jpeg?auto=compress&cs=tinysrgb&dpr=2&h=650&w=940",
                "large": "https://images.pexels.com/photos/5081386/pexels-photo-5081386.jpeg?auto=compress&cs=tinysrgb&h=650&w=940",
                "medium": "https://images.pexels.com/photos/5081386/pexels-photo-5081386.jpeg?auto=compress&cs=tinysrgb&h=350",
                "small": "https://images.pexels.com/photos/5081386/pexels-photo-5081386.jpeg?auto=compress&cs=tinysrgb&h=130",
                "portrait": "https://images.pexels.com/photos/5081386/pexels-photo-5081386.jpeg?auto=compress&cs=tinysrgb&fit=crop&h=1200&w=800",
                "landscape": "https://images.pexels.com/photos/5081386/pexels-photo-5081386.jpeg?auto=compress&cs=tinysrgb&fit=crop&h=627&w=1200",
                "tiny": "https://images.pexels.com/photos/5081386/pexels-photo-5081386.jpeg?auto=compress&cs=tinysrgb&dpr=1&fit=crop&h=200&w=280"
            },
            "liked": false
        },
        {
            "id": 3927389,
            "width": 4000,
            "height": 6000,
            "url": "https://www.pexels.com/photo/black-and-silver-headphones-beside-red-and-black-headphones-3927389/",
            "photographer": "cottonbro",
            "photographer_url": "https://www.pexels.com/@cottonbro",
            "photographer_id": 1437723,
            "avg_color": "#938C8E",
            "src": {
                "original": "https://images.pexels.com/photos/3927389/pexels-photo-3927389.jpeg",
                "large2x": "https://images.pexels.com/photos/3927389/pexels-photo-3927389.jpeg?auto=compress&cs=tinysrgb&dpr=2&h=650&w=940",
                "large": "https://images.pexels.com/photos/3927389/pexels-photo-3927389.jpeg?auto=compress&cs=tinysrgb&h=650&w=940",
                "medium": "https://images.pexels.com/photos/3927389/pexels-photo-3927389.jpeg?auto=compress&cs=tinysrgb&h=350",
                "small": "https://images.pexels.com/photos/3927389/pexels-photo-3927389.jpeg?auto=compress&cs=tinysrgb&h=130",
                "portrait": "https://images.pexels.com/photos/3927389/pexels-photo-3927389.jpeg?auto=compress&cs=tinysrgb&fit=crop&h=1200&w=800",
                "landscape": "https://images.pexels.com/photos/3927389/pexels-photo-3927389.jpeg?auto=compress&cs=tinysrgb&fit=crop&h=627&w=1200",
                "tiny": "https://images.pexels.com/photos/3927389/pexels-photo-3927389.jpeg?auto=compress&cs=tinysrgb&dpr=1&fit=crop&h=200&w=280"
            },
            "liked": false
        }
    ],
    "total_results": 3724,
    "next_page": "https://api.pexels.com/v1/search/?page=2&per_page=6&query=headphones"
}